fpga_based_cnn_accelelrator/fpga_based_cnn_accelelrator.srcs/sim_1/new/conv1_buf/tb_conv1_buf.vcd
$date
	Sat Feb 21 01:45:54 2026
$end
$version
	Icarus Verilog
$end
$timescale
	1s
$end
$scope module tb_conv1_buf $end
$var wire 1 ! valid_out_buf $end
$var wire 8 " data_out_9 [7:0] $end
$var wire 8 # data_out_8 [7:0] $end
$var wire 8 $ data_out_7 [7:0] $end
$var wire 8 % data_out_6 [7:0] $end
$var wire 8 & data_out_5 [7:0] $end
$var wire 8 ' data_out_4 [7:0] $end
$var wire 8 ( data_out_3 [7:0] $end
$var wire 8 ) data_out_24 [7:0] $end
$var wire 8 * data_out_23 [7:0] $end
$var wire 8 + data_out_22 [7:0] $end
$var wire 8 , data_out_21 [7:0] $end
$var wire 8 - data_out_20 [7:0] $end
$var wire 8 . data_out_2 [7:0] $end
$var wire 8 / data_out_19 [7:0] $end
$var wire 8 0 data_out_18 [7:0] $end
$var wire 8 1 data_out_17 [7:0] $end
$var wire 8 2 data_out_16 [7:0] $end
$var wire 8 3 data_out_15 [7:0] $end
$var wire 8 4 data_out_14 [7:0] $end
$var wire 8 5 data_out_13 [7:0] $end
$var wire 8 6 data_out_12 [7:0] $end
$var wire 8 7 data_out_11 [7:0] $end
$var wire 8 8 data_out_10 [7:0] $end
$var wire 8 9 data_out_1 [7:0] $end
$var wire 8 : data_out_0 [7:0] $end
$var reg 1 ; clk $end
$var reg 8 < data_in [7:0] $end
$var reg 1 = rst_n $end
$var reg 1 > valid_in $end
$var integer 32 ? col [31:0] $end
$var integer 32 @ error_cnt [31:0] $end
$var integer 32 A h [31:0] $end
$var integer 32 B i [31:0] $end
$var integer 32 C j [31:0] $end
$var integer 32 D m [31:0] $end
$var integer 32 E pixel_cnt [31:0] $end
$var integer 32 F row [31:0] $end
$var integer 32 G valid_cnt [31:0] $end
$var integer 32 H w [31:0] $end
$scope module dut $end
$var wire 1 ; clk $end
$var wire 8 I data_in [7:0] $end
$var wire 1 = rst_n $end
$var wire 1 > valid_in $end
$var reg 3 J buf_flag [2:0] $end
$var reg 8 K buf_idx [7:0] $end
$var reg 8 L data_out_0 [7:0] $end
$var reg 8 M data_out_1 [7:0] $end
$var reg 8 N data_out_10 [7:0] $end
$var reg 8 O data_out_11 [7:0] $end
$var reg 8 P data_out_12 [7:0] $end
$var reg 8 Q data_out_13 [7:0] $end
$var reg 8 R data_out_14 [7:0] $end
$var reg 8 S data_out_15 [7:0] $end
$var reg 8 T data_out_16 [7:0] $end
$var reg 8 U data_out_17 [7:0] $end
$var reg 8 V data_out_18 [7:0] $end
$var reg 8 W data_out_19 [7:0] $end
$var reg 8 X data_out_2 [7:0] $end
$var reg 8 Y data_out_20 [7:0] $end
$var reg 8 Z data_out_21 [7:0] $end
$var reg 8 [ data_out_22 [7:0] $end
$var reg 8 \ data_out_23 [7:0] $end
$var reg 8 ] data_out_24 [7:0] $end
$var reg 8 ^ data_out_3 [7:0] $end
$var reg 8 _ data_out_4 [7:0] $end
$var reg 8 ` data_out_5 [7:0] $end
$var reg 8 a data_out_6 [7:0] $end
$var reg 8 b data_out_7 [7:0] $end
$var reg 8 c data_out_8 [7:0] $end
$var reg 8 d data_out_9 [7:0] $end
$var reg 5 e h_idx [4:0] $end
$var reg 1 f state $end
$var reg 1 ! valid_out_buf $end
$var reg 5 g w_idx [4:0] $end
$var integer 32 h i [31:0] $end
$upscope $end
$scope task compare_outputs $end
$upscope $end
$scope task error $end
$var reg 8 i act [7:0] $end
$var reg 8 j exp [7:0] $end
$var integer 32 k idx [31:0] $end
$upscope $end
$upscope $end
$enddefinitions $end
#0
$dumpvars
bx k
bx j
bx i
bx h
bx g
xf
bx e
bx d
bx c
bx b
bx a
bx `
bx _
bx ^
bx ]
bx \
bx [
bx Z
bx Y
bx X
bx W
bx V
bx U
bx T
bx S
bx R
bx Q
bx P
bx O
bx N
bx M
bx L
bx K
bx J
b0 I
bx H
b0 G
bx F
b0 E
bx D
bx C
bx B
bx A
b0 @
bx ?
0>
0=
b0 <
0;
bx :
bx 9
bx 8
bx 7
bx 6
bx 5
bx 4
bx 3
bx 2
bx 1
bx 0
bx /
bx .
bx -
bx ,
bx +
bx *
bx )
bx (
bx '
bx &
bx %
bx $
bx #
bx "
x!
$end
#5
b0 )
b0 ]
b0 *
b0 \
b0 +
b0 [
b0 ,
b0 Z
b0 -
b0 Y
b0 /
b0 W
b0 0
b0 V
b0 1
b0 U
b0 2
b0 T
b0 3
b0 S
b0 4
b0 R
b0 5
b0 Q
b0 6
b0 P
b0 7
b0 O
b0 8
b0 N
b0 "
b0 d
b0 #
b0 c
b0 $
b0 b
b0 %
b0 a
b0 &
b0 `
b0 '
b0 _
b0 (
b0 ^
b0 .
b0 X
b0 9
b0 M
b0 :
b0 L
0!
0f
b0 J
b0 e
b0 g
b0 K
b10001100 h
1;
#10
0;
#15
b10001100 h
1;
#20
0;
1=
#25
1;
#30
0;
b0 ?
b0 F
#35
b1 K
b1 ?
b1 E
1>
1;
#40
0;
#45
b10 K
b10 ?
b10 E
b1 <
b1 I
1;
#50
0;
#55
b11 K
b11 ?
b11 E
b10 <
b10 I
1;
#60
0;
#65
b100 K
b100 ?
b100 E
b11 <
b11 I
1;
#70
0;
#75
b101 K
b101 ?
b101 E
b100 <
b100 I
1;
#80
0;
#85
b110 K
b110 ?
b110 E
b101 <
b101 I
1;
#90
0;
#95
b111 K
b111 ?
b111 E
b110 <
b110 I
1;
#100
0;
#105
b1000 K
b1000 ?
b1000 E
b111 <
b111 I
1;
#110
0;
#115
b1001 K
b1001 ?
b1001 E
b1000 <
b1000 I
1;
#120
0;
#125
b1010 K
b1010 ?
b1010 E
b1001 <
b1001 I
1;
#130
0;
#135
b1011 K
b1011 ?
b1011 E
b1010 <
b1010 I
1;
#140
0;
#145
b1100 K
b1100 ?
b1100 E
b1011 <
b1011 I
1;
#150
0;
#155
b1101 K
b1101 ?
b1101 E
b1100 <
b1100 I
1;
#160
0;
#165
b1110 K
b1110 ?
b1110 E
b1101 <
b1101 I
1;
#170
0;
#175
b1111 K
b1111 ?
b1111 E
b1110 <
b1110 I
1;
#180
0;
#185
b10000 K
b10000 ?
b10000 E
b1111 <
b1111 I
1;
#190
0;
#195
b10001 K
b10001 ?
b10001 E
b10000 <
b10000 I
1;
#200
0;
#205
b10010 K
b10010 ?
b10010 E
b10001 <
b10001 I
1;
#210
0;
#215
b10011 K
b10011 ?
b10011 E
b10010 <
b10010 I
1;
#220
0;
#225
b10100 K
b10100 ?
b10100 E
b10011 <
b10011 I
1;
#230
0;
#235
b10101 K
b10101 ?
b10101 E
b10100 <
b10100 I
1;
#240
0;
#245
b10110 K
b10110 ?
b10110 E
b10101 <
b10101 I
1;
#250
0;
#255
b10111 K
b10111 ?
b10111 E
b10110 <
b10110 I
1;
#260
0;
#265
b11000 K
b11000 ?
b11000 E
b10111 <
b10111 I
1;
#270
0;
#275
b11001 K
b11001 ?
b11001 E
b11000 <
b11000 I
1;
#280
0;
#285
b11010 K
b11010 ?
b11010 E
b11001 <
b11001 I
1;
#290
0;
#295
b11011 K
b11011 ?
b11011 E
b11010 <
b11010 I
1;
#300
0;
#305
b11100 K
b1 F
b0 ?
b11100 E
b11011 <
b11011 I
1;
#310
0;
#315
b11101 K
b1 ?
b11101 E
b11100 <
b11100 I
1;
#320
0;
#325
b11110 K
b10 ?
b11110 E
b11101 <
b11101 I
1;
#330
0;
#335
b11111 K
b11 ?
b11111 E
b11110 <
b11110 I
1;
#340
0;
#345
b100000 K
b100 ?
b100000 E
b11111 <
b11111 I
1;
#350
0;
#355
b100001 K
b101 ?
b100001 E
b100000 <
b100000 I
1;
#360
0;
#365
b100010 K
b110 ?
b100010 E
b100001 <
b100001 I
1;
#370
0;
#375
b100011 K
b111 ?
b100011 E
b100010 <
b100010 I
1;
#380
0;
#385
b100100 K
b1000 ?
b100100 E
b100011 <
b100011 I
1;
#390
0;
#395
b100101 K
b1001 ?
b100101 E
b100100 <
b100100 I
1;
#400
0;
#405
b100110 K
b1010 ?
b100110 E
b100101 <
b100101 I
1;
#410
0;
#415
b100111 K
b1011 ?
b100111 E
b100110 <
b100110 I
1;
#420
0;
#425
b101000 K
b1100 ?
b101000 E
b100111 <
b100111 I
1;
#430
0;
#435
b101001 K
b1101 ?
b101001 E
b101000 <
b101000 I
1;
#440
0;
#445
b101010 K
b1110 ?
b101010 E
b101001 <
b101001 I
1;
#450
0;
#455
b101011 K
b1111 ?
b101011 E
b101010 <
b101010 I
1;
#460
0;
#465
b101100 K
b10000 ?
b101100 E
b101011 <
b101011 I
1;
#470
0;
#475
b101101 K
b10001 ?
b101101 E
b101100 <
b101100 I
1;
#480
0;
#485
b101110 K
b10010 ?
b101110 E
b101101 <
b101101 I
1;
#490
0;
#495
b101111 K
b10011 ?
b101111 E
b101110 <
b101110 I
1;
#500
0;
#505
b110000 K
b10100 ?
b110000 E
b101111 <
b101111 I
1;
#510
0;
#515
b110001 K
b10101 ?
b110001 E
b110000 <
b110000 I
1;
#520
0;
#525
b110010 K
b10110 ?
b110010 E
b110001 <
b110001 I
1;
#530
0;
#535
b110011 K
b10111 ?
b110011 E
b110010 <
b110010 I
1;
#540
0;
#545
b110100 K
b11000 ?
b110100 E
b110011 <
b110011 I
1;
#550
0;
#555
b110101 K
b11001 ?
b110101 E
b110100 <
b110100 I
1;
#560
0;
#565
b110110 K
b11010 ?
b110110 E
b110101 <
b110101 I
1;
#570
0;
#575
b110111 K
b11011 ?
b110111 E
b110110 <
b110110 I
1;
#580
0;
#585
b111000 K
b10 F
b0 ?
b111000 E
b110111 <
b110111 I
1;
#590
0;
#595
b111001 K
b1 ?
b111001 E
b111000 <
b111000 I
1;
#600
0;
#605
b111010 K
b10 ?
b111010 E
b111001 <
b111001 I
1;
#610
0;
#615
b111011 K
b11 ?
b111011 E
b111010 <
b111010 I
1;
#620
0;
#625
b111100 K
b100 ?
b111100 E
b111011 <
b111011 I
1;
#630
0;
#635
b111101 K
b101 ?
b111101 E
b111100 <
b111100 I
1;
#640
0;
#645
b111110 K
b110 ?
b111110 E
b111101 <
b111101 I
1;
#650
0;
#655
b111111 K
b111 ?
b111111 E
b111110 <
b111110 I
1;
#660
0;
#665
b1000000 K
b1000 ?
b1000000 E
b111111 <
b111111 I
1;
#670
0;
#675
b1000001 K
b1001 ?
b1000001 E
b1000000 <
b1000000 I
1;
#680
0;
#685
b1000010 K
b1010 ?
b1000010 E
b1000001 <
b1000001 I
1;
#690
0;
#695
b1000011 K
b1011 ?
b1000011 E
b1000010 <
b1000010 I
1;
#700
0;
#705
b1000100 K
b1100 ?
b1000100 E
b1000011 <
b1000011 I
1;
#710
0;
#715
b1000101 K
b1101 ?
b1000101 E
b1000100 <
b1000100 I
1;
#720
0;
#725
b1000110 K
b1110 ?
b1000110 E
b1000101 <
b1000101 I
1;
#730
0;
#735
b1000111 K
b1111 ?
b1000111 E
b1000110 <
b1000110 I
1;
#740
0;
#745
b1001000 K
b10000 ?
b1001000 E
b1000111 <
b1000111 I
1;
#750
0;
#755
b1001001 K
b10001 ?
b1001001 E
b1001000 <
b1001000 I
1;
#760
0;
#765
b1001010 K
b10010 ?
b1001010 E
b1001001 <
b1001001 I
1;
#770
0;
#775
b1001011 K
b10011 ?
b1001011 E
b1001010 <
b1001010 I
1;
#780
0;
#785
b1001100 K
b10100 ?
b1001100 E
b1001011 <
b1001011 I
1;
#790
0;
#795
b1001101 K
b10101 ?
b1001101 E
b1001100 <
b1001100 I
1;
#800
0;
#805
b1001110 K
b10110 ?
b1001110 E
b1001101 <
b1001101 I
1;
#810
0;
#815
b1001111 K
b10111 ?
b1001111 E
b1001110 <
b1001110 I
1;
#820
0;
#825
b1010000 K
b11000 ?
b1010000 E
b1001111 <
b1001111 I
1;
#830
0;
#835
b1010001 K
b11001 ?
b1010001 E
b1010000 <
b1010000 I
1;
#840
0;
#845
b1010010 K
b11010 ?
b1010010 E
b1010001 <
b1010001 I
1;
#850
0;
#855
b1010011 K
b11011 ?
b1010011 E
b1010010 <
b1010010 I
1;
#860
0;
#865
b1010100 K
b11 F
b0 ?
b1010100 E
b1010011 <
b1010011 I
1;
#870
0;
#875
b1010101 K
b1 ?
b1010101 E
b1010100 <
b1010100 I
1;
#880
0;
#885
b1010110 K
b10 ?
b1010110 E
b1010101 <
b1010101 I
1;
#890
0;
#895
b1010111 K
b11 ?
b1010111 E
b1010110 <
b1010110 I
1;
#900
0;
#905
b1011000 K
b100 ?
b1011000 E
b1010111 <
b1010111 I
1;
#910
0;
#915
b1011001 K
b101 ?
b1011001 E
b1011000 <
b1011000 I
1;
#920
0;
#925
b1011010 K
b110 ?
b1011010 E
b1011001 <
b1011001 I
1;
#930
0;
#935
b1011011 K
b111 ?
b1011011 E
b1011010 <
b1011010 I
1;
#940
0;
#945
b1011100 K
b1000 ?
b1011100 E
b1011011 <
b1011011 I
1;
#950
0;
#955
b1011101 K
b1001 ?
b1011101 E
b1011100 <
b1011100 I
1;
#960
0;
#965
b1011110 K
b1010 ?
b1011110 E
b1011101 <
b1011101 I
1;
#970
0;
#975
b1011111 K
b1011 ?
b1011111 E
b1011110 <
b1011110 I
1;
#980
0;
#985
b1100000 K
b1100 ?
b1100000 E
b1011111 <
b1011111 I
1;
#990
0;
#995
b1100001 K
b1101 ?
b1100001 E
b1100000 <
b1100000 I
1;
#1000
0;
#1005
b1100010 K
b1110 ?
b1100010 E
b1100001 <
b1100001 I
1;
#1010
0;
#1015
b1100011 K
b1111 ?
b1100011 E
b1100010 <
b1100010 I
1;
#1020
0;
#1025
b1100100 K
b10000 ?
b1100100 E
b1100011 <
b1100011 I
1;
#1030
0;
#1035
b1100101 K
b10001 ?
b1100101 E
b1100100 <
b1100100 I
1;
#1040
0;
#1045
b1100110 K
b10010 ?
b1100110 E
b1100101 <
b1100101 I
1;
#1050
0;
#1055
b1100111 K
b10011 ?
b1100111 E
b1100110 <
b1100110 I
1;
#1060
0;
#1065
b1101000 K
b10100 ?
b1101000 E
b1100111 <
b1100111 I
1;
#1070
0;
#1075
b1101001 K
b10101 ?
b1101001 E
b1101000 <
b1101000 I
1;
#1080
0;
#1085
b1101010 K
b10110 ?
b1101010 E
b1101001 <
b1101001 I
1;
#1090
0;
#1095
b1101011 K
b10111 ?
b1101011 E
b1101010 <
b1101010 I
1;
#1100
0;
#1105
b1101100 K
b11000 ?
b1101100 E
b1101011 <
b1101011 I
1;
#1110
0;
#1115
b1101101 K
b11001 ?
b1101101 E
b1101100 <
b1101100 I
1;
#1120
0;
#1125
b1101110 K
b11010 ?
b1101110 E
b1101101 <
b1101101 I
1;
#1130
0;
#1135
b1101111 K
b11011 ?
b1101111 E
b1101110 <
b1101110 I
1;
#1140
0;
#1145
b1110000 K
b100 F
b0 ?
b1110000 E
b1101111 <
b1101111 I
1;
#1150
0;
#1155
b1110001 K
b1 ?
b1110001 E
b1110000 <
b1110000 I
1;
#1160
0;
#1165
b1110010 K
b10 ?
b1110010 E
b1110001 <
b1110001 I
1;
#1170
0;
#1175
b1110011 K
b11 ?
b1110011 E
b1110010 <
b1110010 I
1;
#1180
0;
#1185
b1110100 K
b100 ?
b1110100 E
b1110011 <
b1110011 I
1;
#1190
0;
#1195
b1110101 K
b101 ?
b1110101 E
b1110100 <
b1110100 I
1;
#1200
0;
#1205
b1110110 K
b110 ?
b1110110 E
b1110101 <
b1110101 I
1;
#1210
0;
#1215
b1110111 K
b111 ?
b1110111 E
b1110110 <
b1110110 I
1;
#1220
0;
#1225
b1111000 K
b1000 ?
b1111000 E
b1110111 <
b1110111 I
1;
#1230
0;
#1235
b1111001 K
b1001 ?
b1111001 E
b1111000 <
b1111000 I
1;
#1240
0;
#1245
b1111010 K
b1010 ?
b1111010 E
b1111001 <
b1111001 I
1;
#1250
0;
#1255
b1111011 K
b1011 ?
b1111011 E
b1111010 <
b1111010 I
1;
#1260
0;
#1265
b1111100 K
b1100 ?
b1111100 E
b1111011 <
b1111011 I
1;
#1270
0;
#1275
b1111101 K
b1101 ?
b1111101 E
b1111100 <
b1111100 I
1;
#1280
0;
#1285
b1111110 K
b1110 ?
b1111110 E
b1111101 <
b1111101 I
1;
#1290
0;
#1295
b1111111 K
b1111 ?
b1111111 E
b1111110 <
b1111110 I
1;
#1300
0;
#1305
b10000000 K
b10000 ?
b10000000 E
b1111111 <
b1111111 I
1;
#1310
0;
#1315
b10000001 K
b10001 ?
b10000001 E
b10000000 <
b10000000 I
1;
#1320
0;
#1325
b10000010 K
b10010 ?
b10000010 E
b10000001 <
b10000001 I
1;
#1330
0;
#1335
b10000011 K
b10011 ?
b10000011 E
b10000010 <
b10000010 I
1;
#1340
0;
#1345
b10000100 K
b10100 ?
b10000100 E
b10000011 <
b10000011 I
1;
#1350
0;
#1355
b10000101 K
b10101 ?
b10000101 E
b10000100 <
b10000100 I
1;
#1360
0;
#1365
b10000110 K
b10110 ?
b10000110 E
b10000101 <
b10000101 I
1;
#1370
0;
#1375
b10000111 K
b10111 ?
b10000111 E
b10000110 <
b10000110 I
1;
#1380
0;
#1385
b10001000 K
b11000 ?
b10001000 E
b10000111 <
b10000111 I
1;
#1390
0;
#1395
b10001001 K
b11001 ?
b10001001 E
b10001000 <
b10001000 I
1;
#1400
0;
#1405
b10001010 K
b11010 ?
b10001010 E
b10001001 <
b10001001 I
1;
#1410
0;
#1415
b10001011 K
b11011 ?
b10001011 E
b10001010 <
b10001010 I
1;
#1420
0;
#1425
1f
b0 K
b101 F
b0 ?
b10001100 E
b10001011 <
b10001011 I
1;
#1430
0;
#1435
b1110100 )
b1110100 ]
b1110010 *
b1110010 \
b1110010 +
b1110010 [
b1110000 ,
b1110000 Z
b1110000 -
b1110000 Y
b1011000 /
b1011000 W
b1010110 0
b1010110 V
b1010110 1
b1010110 U
b1010100 2
b1010100 T
b1010100 3
b1010100 S
b111100 4
b111100 R
b111010 5
b111010 Q
b111010 6
b111010 P
b111000 7
b111000 O
b111000 8
b111000 N
b100000 "
b100000 d
b11110 #
b11110 c
b11110 $
b11110 b
b11100 %
b11100 a
b11100 &
b11100 `
b100 '
b100 _
b10 (
b10 ^
b10 .
b10 X
1!
b1 g
b1 K
b1 ?
b10001101 E
b10001100 <
b10001100 I
1;
#1440
b1010 @
b1110010 i
b1110011 j
b10111 k
b101 C
b101 B
b0 A
b0 H
b0 D
b1 G
0;
#1445
b1110100 *
b1110100 \
b1110010 ,
b1110010 Z
b1011000 0
b1011000 V
b1010110 2
b1010110 T
b111100 5
b111100 Q
b111010 7
b111010 O
b100000 #
b100000 c
b11110 %
b11110 a
b100 (
b100 ^
b10 9
b10 M
b10 g
b10 K
b10 ?
b10001110 E
b10001101 <
b10001101 I
1;
#1450
b11001 @
b1110100 i
b1110101 j
b11000 k
b101 C
b101 B
b1 H
b1 D
b10 G
0;
#1455
b1110110 )
b1110110 ]
b1110100 +
b1110100 [
b1110010 -
b1110010 Y
b1011010 /
b1011010 W
b1011000 1
b1011000 U
b1010110 3
b1010110 S
b111110 4
b111110 R
b111100 6
b111100 P
b111010 8
b111010 N
b100010 "
b100010 d
b100000 $
b100000 b
b11110 &
b11110 `
b110 '
b110 _
b100 .
b100 X
b10 :
b10 L
b11 g
b11 K
b11 ?
b10001111 E
b10001110 <
b10001110 I
1;
#1460
b100011 @
b1110100 i
b1110101 j
b10111 k
b101 C
b101 B
b10 H
b10 D
b11 G
0;
#1465
b1110110 *
b1110110 \
b1110100 ,
b1110100 Z
b1011010 0
b1011010 V
b1011000 2
b1011000 T
b111110 5
b111110 Q
b111100 7
b111100 O
b100010 #
b100010 c
b100000 %
b100000 a
b110 (
b110 ^
b100 9
b100 M
b100 g
b100 K
b100 ?
b10010000 E
b10001111 <
b10001111 I
1;
#1470
b110010 @
b1110110 i
b1110111 j
b11000 k
b101 C
b101 B
b11 H
b11 D
b100 G
0;
#1475
b1111000 )
b1111000 ]
b1110110 +
b1110110 [
b1110100 -
b1110100 Y
b1011100 /
b1011100 W
b1011010 1
b1011010 U
b1011000 3
b1011000 S
b1000000 4
b1000000 R
b111110 6
b111110 P
b111100 8
b111100 N
b100100 "
b100100 d
b100010 $
b100010 b
b100000 &
b100000 `
b1000 '
b1000 _
b110 .
b110 X
b100 :
b100 L
b101 g
b101 K
b101 ?
b10010001 E
b10010000 <
b10010000 I
1;
#1480
b111100 @
b1110110 i
b1110111 j
b10111 k
b101 C
b101 B
b100 H
b100 D
b101 G
0;
#1485
b1111000 *
b1111000 \
b1110110 ,
b1110110 Z
b1011100 0
b1011100 V
b1011010 2
b1011010 T
b1000000 5
b1000000 Q
b111110 7
b111110 O
b100100 #
b100100 c
b100010 %
b100010 a
b1000 (
b1000 ^
b110 9
b110 M
b110 g
b110 K
b110 ?
b10010010 E
b10010001 <
b10010001 I
1;
#1490
b1001011 @
b1111000 i
b1111001 j
b11000 k
b101 C
b101 B
b101 H
b101 D
b110 G
0;
#1495
b1111010 )
b1111010 ]
b1111000 +
b1111000 [
b1110110 -
b1110110 Y
b1011110 /
b1011110 W
b1011100 1
b1011100 U
b1011010 3
b1011010 S
b1000010 4
b1000010 R
b1000000 6
b1000000 P
b111110 8
b111110 N
b100110 "
b100110 d
b100100 $
b100100 b
b100010 &
b100010 `
b1010 '
b1010 _
b1000 .
b1000 X
b110 :
b110 L
b111 g
b111 K
b111 ?
b10010011 E
b10010010 <
b10010010 I
1;
#1500
b1010101 @
b1111000 i
b1111001 j
b10111 k
b101 C
b101 B
b110 H
b110 D
b111 G
0;
#1505
b1111010 *
b1111010 \
b1111000 ,
b1111000 Z
b1011110 0
b1011110 V
b1011100 2
b1011100 T
b1000010 5
b1000010 Q
b1000000 7
b1000000 O
b100110 #
b100110 c
b100100 %
b100100 a
b1010 (
b1010 ^
b1000 9
b1000 M
b1000 g
b1000 K
b1000 ?
b10010100 E
b10010011 <
b10010011 I
1;
#1510
b1100100 @
b1111010 i
b1111011 j
b11000 k
b101 C
b101 B
b111 H
b111 D
b1000 G
0;
#1515
b1111100 )
b1111100 ]
b1111010 +
b1111010 [
b1111000 -
b1111000 Y
b1100000 /
b1100000 W
b1011110 1
b1011110 U
b1011100 3
b1011100 S
b1000100 4
b1000100 R
b1000010 6
b1000010 P
b1000000 8
b1000000 N
b101000 "
b101000 d
b100110 $
b100110 b
b100100 &
b100100 `
b1100 '
b1100 _
b1010 .
b1010 X
b1000 :
b1000 L
b1001 g
b1001 K
b1001 ?
b10010101 E
b10010100 <
b10010100 I
1;
#1520
b1101110 @
b1111010 i
b1111011 j
b10111 k
b101 C
b101 B
b1000 H
b1000 D
b1001 G
0;
#1525
b1111100 *
b1111100 \
b1111010 ,
b1111010 Z
b1100000 0
b1100000 V
b1011110 2
b1011110 T
b1000100 5
b1000100 Q
b1000010 7
b1000010 O
b101000 #
b101000 c
b100110 %
b100110 a
b1100 (
b1100 ^
b1010 9
b1010 M
b1010 g
b1010 K
b1010 ?
b10010110 E
b10010101 <
b10010101 I
1;
#1530
b1111101 @
b1111100 i
b1111101 j
b11000 k
b101 C
b101 B
b1001 H
b1001 D
b1010 G
0;
#1535
b1111110 )
b1111110 ]
b1111100 +
b1111100 [
b1111010 -
b1111010 Y
b1100010 /
b1100010 W
b1100000 1
b1100000 U
b1011110 3
b1011110 S
b1000110 4
b1000110 R
b1000100 6
b1000100 P
b1000010 8
b1000010 N
b101010 "
b101010 d
b101000 $
b101000 b
b100110 &
b100110 `
b1110 '
b1110 _
b1100 .
b1100 X
b1010 :
b1010 L
b1011 g
b1011 K
b1011 ?
b10010111 E
b10010110 <
b10010110 I
1;
#1540
b10000111 @
b1111100 i
b1111101 j
b10111 k
b101 C
b101 B
b1010 H
b1010 D
b1011 G
0;
#1545
b1111110 *
b1111110 \
b1111100 ,
b1111100 Z
b1100010 0
b1100010 V
b1100000 2
b1100000 T
b1000110 5
b1000110 Q
b1000100 7
b1000100 O
b101010 #
b101010 c
b101000 %
b101000 a
b1110 (
b1110 ^
b1100 9
b1100 M
b1100 g
b1100 K
b1100 ?
b10011000 E
b10010111 <
b10010111 I
1;
#1550
b10010110 @
b1111110 i
b1111111 j
b11000 k
b101 C
b101 B
b1011 H
b1011 D
b1100 G
0;
#1555
b10000000 )
b10000000 ]
b1111110 +
b1111110 [
b1111100 -
b1111100 Y
b1100100 /
b1100100 W
b1100010 1
b1100010 U
b1100000 3
b1100000 S
b1001000 4
b1001000 R
b1000110 6
b1000110 P
b1000100 8
b1000100 N
b101100 "
b101100 d
b101010 $
b101010 b
b101000 &
b101000 `
b10000 '
b10000 _
b1110 .
b1110 X
b1100 :
b1100 L
b1101 g
b1101 K
b1101 ?
b10011001 E
b10011000 <
b10011000 I
1;
#1560
b10100000 @
b1111110 i
b1111111 j
b10111 k
b101 C
b101 B
b1100 H
b1100 D
b1101 G
0;
#1565
b10000000 *
b10000000 \
b1111110 ,
b1111110 Z
b1100100 0
b1100100 V
b1100010 2
b1100010 T
b1001000 5
b1001000 Q
b1000110 7
b1000110 O
b101100 #
b101100 c
b101010 %
b101010 a
b10000 (
b10000 ^
b1110 9
b1110 M
b1110 g
b1110 K
b1110 ?
b10011010 E
b10011001 <
b10011001 I
1;
#1570
b10101111 @
b10000000 i
b10000001 j
b11000 k
b101 C
b101 B
b1101 H
b1101 D
b1110 G
0;
#1575
b10000010 )
b10000010 ]
b10000000 +
b10000000 [
b1111110 -
b1111110 Y
b1100110 /
b1100110 W
b1100100 1
b1100100 U
b1100010 3
b1100010 S
b1001010 4
b1001010 R
b1001000 6
b1001000 P
b1000110 8
b1000110 N
b101110 "
b101110 d
b101100 $
b101100 b
b101010 &
b101010 `
b10010 '
b10010 _
b10000 .
b10000 X
b1110 :
b1110 L
b1111 g
b1111 K
b1111 ?
b10011011 E
b10011010 <
b10011010 I
1;
#1580
b10111001 @
b10000000 i
b10000001 j
b10111 k
b101 C
b101 B
b1110 H
b1110 D
b1111 G
0;
#1585
b10000010 *
b10000010 \
b10000000 ,
b10000000 Z
b1100110 0
b1100110 V
b1100100 2
b1100100 T
b1001010 5
b1001010 Q
b1001000 7
b1001000 O
b101110 #
b101110 c
b101100 %
b101100 a
b10010 (
b10010 ^
b10000 9
b10000 M
b10000 g
b10000 K
b10000 ?
b10011100 E
b10011011 <
b10011011 I
1;
#1590
b11001000 @
b10000010 i
b10000011 j
b11000 k
b101 C
b101 B
b1111 H
b1111 D
b10000 G
0;
#1595
b10000100 )
b10000100 ]
b10000010 +
b10000010 [
b10000000 -
b10000000 Y
b1101000 /
b1101000 W
b1100110 1
b1100110 U
b1100100 3
b1100100 S
b1001100 4
b1001100 R
b1001010 6
b1001010 P
b1001000 8
b1001000 N
b110000 "
b110000 d
b101110 $
b101110 b
b101100 &
b101100 `
b10100 '
b10100 _
b10010 .
b10010 X
b10000 :
b10000 L
b10001 g
b10001 K
b10001 ?
b10011101 E
b10011100 <
b10011100 I
1;
#1600
b11010010 @
b10000010 i
b10000011 j
b10111 k
b101 C
b101 B
b10000 H
b10000 D
b10001 G
0;
#1605
b10000100 *
b10000100 \
b10000010 ,
b10000010 Z
b1101000 0
b1101000 V
b1100110 2
b1100110 T
b1001100 5
b1001100 Q
b1001010 7
b1001010 O
b110000 #
b110000 c
b101110 %
b101110 a
b10100 (
b10100 ^
b10010 9
b10010 M
b10010 g
b10010 K
b10010 ?
b10011110 E
b10011101 <
b10011101 I
1;
#1610
b11100001 @
b10000100 i
b10000101 j
b11000 k
b101 C
b101 B
b10001 H
b10001 D
b10010 G
0;
#1615
b10000110 )
b10000110 ]
b10000100 +
b10000100 [
b10000010 -
b10000010 Y
b1101010 /
b1101010 W
b1101000 1
b1101000 U
b1100110 3
b1100110 S
b1001110 4
b1001110 R
b1001100 6
b1001100 P
b1001010 8
b1001010 N
b110010 "
b110010 d
b110000 $
b110000 b
b101110 &
b101110 `
b10110 '
b10110 _
b10100 .
b10100 X
b10010 :
b10010 L
b10011 g
b10011 K
b10011 ?
b10011111 E
b10011110 <
b10011110 I
1;
#1620
b11101011 @
b10000100 i
b10000101 j
b10111 k
b101 C
b101 B
b10010 H
b10010 D
b10011 G
0;
#1625
b10000110 *
b10000110 \
b10000100 ,
b10000100 Z
b1101010 0
b1101010 V
b1101000 2
b1101000 T
b1001110 5
b1001110 Q
b1001100 7
b1001100 O
b110010 #
b110010 c
b110000 %
b110000 a
b10110 (
b10110 ^
b10100 9
b10100 M
b10100 g
b10100 K
b10100 ?
b10100000 E
b10011111 <
b10011111 I
1;
#1630
b11111010 @
b10000110 i
b10000111 j
b11000 k
b101 C
b101 B
b10011 H
b10011 D
b10100 G
0;
#1635
b10001000 )
b10001000 ]
b10000110 +
b10000110 [
b10000100 -
b10000100 Y
b1101100 /
b1101100 W
b1101010 1
b1101010 U
b1101000 3
b1101000 S
b1010000 4
b1010000 R
b1001110 6
b1001110 P
b1001100 8
b1001100 N
b110100 "
b110100 d
b110010 $
b110010 b
b110000 &
b110000 `
b11000 '
b11000 _
b10110 .
b10110 X
b10100 :
b10100 L
b10101 g
b10101 K
b10101 ?
b10100001 E
b10100000 <
b10100000 I
1;
#1640
b100000100 @
b10000110 i
b10000111 j
b10111 k
b101 C
b101 B
b10100 H
b10100 D
b10101 G
0;
#1645
b10001000 *
b10001000 \
b10000110 ,
b10000110 Z
b1101100 0
b1101100 V
b1101010 2
b1101010 T
b1010000 5
b1010000 Q
b1001110 7
b1001110 O
b110100 #
b110100 c
b110010 %
b110010 a
b11000 (
b11000 ^
b10110 9
b10110 M
b10110 g
b10110 K
b10110 ?
b10100010 E
b10100001 <
b10100001 I
1;
#1650
b100010011 @
b10001000 i
b10001001 j
b11000 k
b101 C
b101 B
b10101 H
b10101 D
b10110 G
0;
